TP final: Efecto de Cafeína y Arginina en la formación de memoria a largo plazo de abejorros
…
Día:

Para analizar la variable aleatoria Día se realizó un gráfico de
perfiles el cual muestra una gran variabilidad en las tasas de
aprendizaje promedio según el tratamiento y el día de captura. No se
observa una tendencia entre los distintos tratamientos con CNA aunque en
la amplia mayoría de los casos el tratamiento control sin compuestos
agregados presenta una menor tasa de aprendizaje. No todos los días
cuentan con datos en cada tratamiento, lo que dificulta la
interpretación general.

## # A tibble: 43 × 3
##    Tratamiento   Dia TasaPromedio
##    <fct>       <dbl>        <dbl>
##  1 ARG             5        0.429
##  2 ARG             6        0    
##  3 ARG            11        0.75 
##  4 ARG            12        0.75 
##  5 ARG            13        1    
##  6 ARG            14        0.333
##  7 ARG            15        0.75 
##  8 ARG            16        0.4  
##  9 ARG            17        0.5  
## 10 ARG            18        0.75 
## # ℹ 33 more rows
…
